<svg width="25" height="25" viewBox="0 0 25 25" fill="none" xmlns="http://www.w3.org/2000/svg">
<path d="M7.54492 7.11572H5.20117C4.93149 7.11572 4.71289 7.33433 4.71289 7.604V10.3384C4.71289 10.6081 4.93149 10.8267 5.20117 10.8267H7.54492C7.8146 10.8267 8.0332 10.6081 8.0332 10.3384V7.604C8.0332 7.33433 7.8146 7.11572 7.54492 7.11572ZM7.05664 9.8501H5.68945V8.09229H7.05664V9.8501Z" fill="#FDA100"/>
<path d="M7.54492 12.5845H5.20117C4.93149 12.5845 4.71289 12.8031 4.71289 13.0728V15.8071C4.71289 16.0768 4.93149 16.2954 5.20117 16.2954H7.54492C7.8146 16.2954 8.0332 16.0768 8.0332 15.8071V13.0728C8.0332 12.8031 7.8146 12.5845 7.54492 12.5845ZM7.05664 15.3188H5.68945V13.561H7.05664V15.3188Z" fill="#FDA100"/>
<path d="M7.54492 18.0532H5.20117C4.93149 18.0532 4.71289 18.2718 4.71289 18.5415V21.2759C4.71289 21.5456 4.93149 21.7642 5.20117 21.7642H7.54492C7.8146 21.7642 8.0332 21.5456 8.0332 21.2759V18.5415C8.0332 18.2718 7.8146 18.0532 7.54492 18.0532ZM7.05664 20.7876H5.68945V19.0298H7.05664V20.7876Z" fill="#FDA100"/>
<path d="M20.2881 18.0532H17.9443C17.6747 18.0532 17.4561 18.2718 17.4561 18.5415V21.2759C17.4561 21.5456 17.6747 21.7642 17.9443 21.7642H20.2881C20.5578 21.7642 20.7764 21.5456 20.7764 21.2759V18.5415C20.7764 18.2718 20.5578 18.0532 20.2881 18.0532ZM19.7998 20.7876H18.4326V19.0298H19.7998V20.7876Z" fill="#FDA100"/>
<path d="M11.7925 7.11572H9.44873C9.17905 7.11572 8.96045 7.33433 8.96045 7.604V10.3384C8.96045 10.6081 9.17905 10.8267 9.44873 10.8267H11.7925C12.0622 10.8267 12.2808 10.6081 12.2808 10.3384V7.604C12.2808 7.33433 12.0622 7.11572 11.7925 7.11572ZM11.3042 9.8501H9.93701V8.09229H11.3042V9.8501Z" fill="#FDA100"/>
<path d="M16.04 7.11572H13.6963C13.4266 7.11572 13.208 7.33433 13.208 7.604V10.3384C13.208 10.6081 13.4266 10.8267 13.6963 10.8267H16.04C16.3097 10.8267 16.5283 10.6081 16.5283 10.3384V7.604C16.5283 7.33433 16.3097 7.11572 16.04 7.11572ZM15.5518 9.8501H14.1846V8.09229H15.5518V9.8501Z" fill="#FDA100"/>
<path d="M11.7925 12.5845H9.44873C9.17905 12.5845 8.96045 12.8031 8.96045 13.0728V15.8071C8.96045 16.0768 9.17905 16.2954 9.44873 16.2954H11.7925C12.0622 16.2954 12.2808 16.0768 12.2808 15.8071V13.0728C12.2808 12.8031 12.0622 12.5845 11.7925 12.5845ZM11.3042 15.3188H9.93701V13.561H11.3042V15.3188Z" fill="#FDA100"/>
<path d="M16.04 12.5845H13.6963C13.4266 12.5845 13.208 12.8031 13.208 13.0728V15.8071C13.208 16.0768 13.4266 16.2954 13.6963 16.2954H16.04C16.3097 16.2954 16.5283 16.0768 16.5283 15.8071V13.0728C16.5283 12.8031 16.3097 12.5845 16.04 12.5845ZM15.5518 15.3188H14.1846V13.561H15.5518V15.3188Z" fill="#FDA100"/>
<path d="M20.2881 7.11572H17.9443C17.6747 7.11572 17.4561 7.33433 17.4561 7.604V10.3384C17.4561 10.6081 17.6747 10.8267 17.9443 10.8267H20.2881C20.5578 10.8267 20.7764 10.6081 20.7764 10.3384V7.604C20.7764 7.33433 20.5578 7.11572 20.2881 7.11572ZM19.7998 9.8501H18.4326V8.09229H19.7998V9.8501Z" fill="#FDA100"/>
<path d="M20.2881 12.5845H17.9443C17.6747 12.5845 17.4561 12.8031 17.4561 13.0728V15.8071C17.4561 16.0768 17.6747 16.2954 17.9443 16.2954H20.2881C20.5578 16.2954 20.7764 16.0768 20.7764 15.8071V13.0728C20.7764 12.8031 20.5578 12.5845 20.2881 12.5845ZM19.7998 15.3188H18.4326V13.561H19.7998V15.3188Z" fill="#FDA100"/>
<path d="M24.5117 24.0234H22.6801V5.0812C22.6801 4.81152 22.4615 4.59292 22.1918 4.59292H19.4818V2.83203C19.4818 2.56235 19.2632 2.34375 18.9935 2.34375H16.3086V0.488281C16.3086 0.218604 16.09 0 15.8203 0H9.17969C8.91001 0 8.69141 0.218604 8.69141 0.488281V2.34375H6.00654C5.73687 2.34375 5.51826 2.56235 5.51826 2.83203V4.59292H2.80815C2.53848 4.59292 2.31987 4.81152 2.31987 5.0812V24.0234H0.488281C0.218604 24.0234 0 24.242 0 24.5117C0 24.7814 0.218604 25 0.488281 25H24.5117C24.7814 25 25 24.7814 25 24.5117C25 24.242 24.7814 24.0234 24.5117 24.0234ZM9.66797 0.976562H15.332V2.34375H9.66797V0.976562ZM14.5508 24.0234H11.1723L14.5508 20.645V24.0234ZM14.5508 19.2669C14.5399 19.2761 14.5292 19.2855 14.5189 19.2958L10.4492 23.3654V21.296L13.5812 18.1641H14.5508V19.2669ZM10.4492 19.9149V18.1641H12.2L10.4492 19.9149ZM21.7036 24.0234H18.4331H15.5273V18.1641H15.6982C15.9679 18.1641 16.1865 17.9455 16.1865 17.6758C16.1865 17.4061 15.9679 17.1875 15.6982 17.1875H9.30176C9.03208 17.1875 8.81348 17.4061 8.81348 17.6758C8.81348 17.9455 9.03208 18.1641 9.30176 18.1641H9.47266V24.0234H3.29644V5.56948H8.7167C8.98638 5.56948 9.20498 5.35088 9.20498 5.0812C9.20498 4.81152 8.98638 4.59292 8.7167 4.59292H6.49482V3.32031H18.5052V4.59292H8.49609C8.22642 4.59292 8.00781 4.81152 8.00781 5.0812C8.00781 5.35088 8.22642 5.56948 8.49609 5.56948H21.7036V24.0234Z" fill="#FDA100"/>
</svg>
